<?xml version="1.0" encoding="UTF-8"?>
<Project>
   <description></description>
   <name>Inbox Module Testcases</name>
   <tag></tag>
   <UUID>6c7a1c74-980f-4625-9f32-703a725b901e</UUID>
   <freeLicense>true</freeLicense>
   <migratedVersion>5.9.0</migratedVersion>
   <pageLoadTimeout>0</pageLoadTimeout>
   <projectFileLocation>C:\Users\Ivan Gonzales\Katalon Studio\Inbox Module Testcases\Inbox Module Testcases.prj</projectFileLocation>
   <sourceContent>
      <sourceFolderList>
         <sourceFolderConfiguration>
            <url>Include/scripts/groovy</url>
         </sourceFolderConfiguration>
      </sourceFolderList>
      <systemFolderList>
         <systemFolderConfiguration>
            <url>Include/scripts/groovy</url>
         </systemFolderConfiguration>
         <systemFolderConfiguration>
            <url>Include/features</url>
         </systemFolderConfiguration>
         <systemFolderConfiguration>
            <url>Include/config</url>
         </systemFolderConfiguration>
      </systemFolderList>
   </sourceContent>
   <timeStampInProperties>false</timeStampInProperties>
   <type>WEBUI</type>
</Project>
